dRy - 01-dRy-importing-and-functions
…
#power_outages <-  NA

#power_outages |> glimpse()

How did we get to the chart…?

Creating your own function

We want to create a function that creates a graph we can change over and over again.

This is what the Taylor Swift song data looks like:

taylor_songs |> head(50)

# A tibble: 50 × 16
   name   album release_date track_number uri   acousticness danceability energy
   <chr>  <chr> <date>              <dbl> <chr>        <dbl>        <dbl>  <dbl>
 1 Welco… 1989… 2014-01-01              1 spot…     0.0348          0.789  0.634
 2 Blank… 1989… 2014-01-01              2 spot…     0.103           0.76   0.703
 3 Style  1989… 2014-01-01              3 spot…     0.00245         0.588  0.791
 4 Out O… 1989… 2014-01-01              4 spot…     0.000743        0.553  0.841
 5 All Y… 1989… 2014-01-01              5 spot…     0.00201         0.605  0.725
 6 Shake… 1989… 2014-01-01              6 spot…     0.0647          0.647  0.8  
 7 I Wis… 1989… 2014-01-01              7 spot…     0.0158          0.653  0.893
 8 Bad B… 1989… 2014-01-01              8 spot…     0.0885          0.646  0.794
 9 Wilde… 1989… 2014-01-01              9 spot…     0.0692          0.55   0.688
10 How Y… 1989… 2014-01-01             10 spot…     0.00364         0.765  0.656
# ℹ 40 more rows
# ℹ 8 more variables: instrumentalness <dbl>, liveness <dbl>, loudness <dbl>,
#   speechiness <dbl>, tempo <dbl>, valence <dbl>, popularity <dbl>,
#   duration_min <dbl>
…
