dRy - Power Analysis
…
Longest Outage Events

power_all |> arrange(duration |> desc()) 

# A tibble: 526,165 × 13
   state_event datetime_event_began datetime_restoration event_type   fips state
   <chr>       <dttm>               <dttm>               <chr>       <dbl> <chr>
 1 Texas       2017-08-26 06:26:00  2017-09-08 00:00:00  Severe Wea… 48245 Texas
 2 Texas       2017-08-27 05:10:00  2017-09-08 00:00:00  Severe Wea… 48245 Texas
 3 Texas       2017-08-26 06:26:00  2017-09-08 00:00:00  Severe Wea… 48361 Texas
 4 Texas       2017-08-27 05:10:00  2017-09-08 00:00:00  Severe Wea… 48361 Texas
 5 Texas       2017-08-26 06:26:00  2017-09-08 00:00:00  Severe Wea… 48199 Texas
 6 Texas       2017-08-27 05:10:00  2017-09-08 00:00:00  Severe Wea… 48199 Texas
 7 Louisiana   2020-08-27 05:00:00  2020-09-03 12:00:00  Severe Wea… 22073 Loui…
 8 Texas       2017-08-25 18:30:00  2017-09-05 17:00:00  Severe Wea… 48291 Texas
 9 Texas       2017-08-26 06:26:00  2017-09-08 00:00:00  Severe Wea… 48291 Texas
10 Texas       2017-08-27 05:10:00  2017-09-08 00:00:00  Severe Wea… 48291 Texas
# ℹ 526,155 more rows
# ℹ 7 more variables: county <chr>, start_time <dttm>, duration <dbl>,
#   end_time <dttm>, min_customers <dbl>, max_customers <dbl>,
#   mean_customers <dbl>

What is the most common cause of power outages?

power_all |> group_by (event_type) |> 
  summarize(total_events = n()) |> 
  arrange(total_events |> desc())

# A tibble: 71 × 2
   event_type                               total_events
   <chr>                                           <int>
 1 Severe Weather                                 390099
 2 System Operations                               33086
 3 Vandalism                                       23002
 4 Suspicious Activity                             12763
 5 Transmission Interruption                       11580
 6 Severe Weather/Transmission Interruption         9428
 7 - Weather or natural disaster                    8534
 8 Fuel Supply Deficiency                           7009
 9 Severe Weather/Distribution Interruption         4079
10 Cyber Event                                      3027
# ℹ 61 more rows
…
What state resolves issues the quickest? slowest?

power_cat |> group_by (state_event) |> 
  summarize(avg_event_length = mean(duration), total_occurences = n()) |> 
  arrange(avg_event_length)

# A tibble: 48 × 3
   state_event avg_event_length total_occurences
   <chr>                  <dbl>            <int>
 1 Maryland               0.827             6976
 2 Wyoming                1.10                18
 3 Nevada                 2.05               483
 4 New Mexico             2.06               258
 5 Arizona                2.15               274
 6 Utah                   2.21               294
 7 Nebraska               2.37               870
 8 Idaho                  2.38               645
 9 Montana                3.40                84
10 Colorado               3.52               771
# ℹ 38 more rows

power_cat |> group_by (state_event) |> 
  summarize(avg_event_length = mean(duration), total_occurences = n()) |> 
  arrange(avg_event_length |> desc())

# A tibble: 48 × 3
   state_event    avg_event_length total_occurences
   <chr>                     <dbl>            <int>
 1 Kentucky                  14.9             10689
 2 Oregon                    10.7              1935
 3 Michigan                  10.4             72764
 4 West Virginia             10.2              1548
 5 Alabama                    9.67             6822
 6 Rhode Island               9.21              410
 7 Oklahoma                   9.12             3637
 8 New Jersey                 7.78             2108
 9 New Hampshire              7.07             1072
10 North Carolina             6.81            11470
# ℹ 38 more rows

What state has the most outages? Least?

power_cat |> group_by (state_event) |> 
  summarize(total_outages = n()) |> 
  arrange(total_outages |> desc())

# A tibble: 48 × 2
   state_event    total_outages
   <chr>                  <int>
 1 Texas                 196347
 2 Michigan               72764
 3 California             61499
 4 Florida                39338
 5 New York               13222
 6 North Carolina         11470
 7 Pennsylvania           10766
 8 Kentucky               10689
 9 Louisiana               9326
10 Washington              7838
# ℹ 38 more rows

power_cat |> group_by (state_event) |> 
  summarize(total_outages = n()) |> 
  arrange(total_outages)

# A tibble: 48 × 2
   state_event  total_outages
   <chr>                <int>
 1 Wyoming                 18
 2 Delaware                74
 3 Montana                 84
 4 South Dakota           123
 5 New Mexico             258
 6 Arizona                274
 7 Utah                   294
 8 Rhode Island           410
 9 Nevada                 483
10 Idaho                  645
# ℹ 38 more rows
…
power_states <- power_cat |> group_by(state_event) |> 
  summarize(total_events = n())

power_states

# A tibble: 48 × 2
   state_event total_events
   <chr>              <int>
 1 Alabama             6822
 2 Arizona              274
 3 Arkansas            3304
 4 California         61499
 5 Colorado             771
 6 Connecticut         1120
 7 Delaware              74
 8 Florida            39338
 9 Georgia             7374
10 Idaho                645
# ℹ 38 more rows
…
