dRy - Taycleaning
…
Which album/song has the most acousticness?…for all categories

acousticness <- taylor_all |> group_by (album) |> 
  summarize(avg_accoustic = mean(acousticness, na.rm = T) |> round(2)) |> 
  arrange(avg_accoustic |> desc())

acousticness

# A tibble: 29 × 2
   album                                                           avg_accoustic
   <chr>                                                                   <dbl>
 1 evermore                                                                 0.8 
 2 evermore (deluxe version)                                                0.79
 3 folklore: the long pond studio sessions (from the Disney+ spec…          0.79
 4 folklore (deluxe version)                                                0.72
 5 folklore                                                                 0.71
 6 THE TORTURED POETS DEPARTMENT: THE ANTHOLOGY                             0.57
 7 Live From Clear Channel Stripped 2008                                    0.55
 8 THE TORTURED POETS DEPARTMENT                                            0.46
 9 Midnights (3am Edition)                                                  0.41
10 Midnights (The Til Dawn Edition)                                         0.4 
# ℹ 19 more rows

danceability <- taylor_all |> group_by (album) |> 
  summarize(avg_danceability = mean(danceability, na.rm = T) |> round(2)) |> 
  arrange(avg_danceability |> desc())

danceability

# A tibble: 29 × 2
   album                            avg_danceability
   <chr>                                       <dbl>
 1 Lover                                        0.66
 2 reputation                                   0.66
 3 1989                                         0.65
 4 Midnights                                    0.64
 5 1989 (Deluxe)                                0.63
 6 1989 (Taylor's Version)                      0.63
 7 1989 (Taylor's Version) [Deluxe]             0.63
 8 Red (Deluxe Edition)                         0.63
 9 Midnights (3am Edition)                      0.62
10 Midnights (The Til Dawn Edition)             0.62
# ℹ 19 more rows

instrumentalism <- taylor_all |> group_by (album) |> 
  summarize(avg_instrumentalism = mean(instrumentalness, na.rm = T) |> round(2)) |> 
  arrange(avg_instrumentalism |> desc())

instrumentalism

# A tibble: 29 × 2
   album                            avg_instrumentalism
   <chr>                                          <dbl>
 1 Midnights                                       0.03
 2 Midnights (3am Edition)                         0.02
 3 evermore                                        0.02
 4 evermore (deluxe version)                       0.02
 5 Midnights (The Til Dawn Edition)                0.01
 6 1989                                            0   
 7 1989 (Deluxe)                                   0   
 8 1989 (Taylor's Version)                         0   
 9 1989 (Taylor's Version) [Deluxe]                0   
10 Fearless (International Version)                0   
# ℹ 19 more rows

energy <- taylor_all |> group_by (album) |> 
  summarize(avg_energy = mean(energy, na.rm = T) |> round(2)) |> 
  arrange(avg_energy |> desc())

energy

# A tibble: 29 × 2
   album                                          avg_energy
   <chr>                                               <dbl>
 1 1989                                                 0.7 
 2 1989 (Taylor's Version)                              0.66
 3 1989 (Taylor's Version) [Deluxe]                     0.66
 4 Speak Now                                            0.66
 5 Speak Now (Deluxe Package)                           0.66
 6 Speak Now (Taylor's Version)                         0.66
 7 Taylor Swift (Deluxe Edition)                        0.66
 8 Speak Now World Tour Live                            0.65
 9 reputation Stadium Tour Surprise Song Playlist       0.65
10 Fearless (International Version)                     0.64
# ℹ 19 more rows

tempo <- taylor_all |> group_by (album) |> 
  summarize(avg_tempo = mean(tempo, na.rm = T) |> round(2)) |> 
  arrange(avg_tempo |> desc())

tempo

# A tibble: 29 × 2
   album                                        avg_tempo
   <chr>                                            <dbl>
 1 Live From Clear Channel Stripped 2008             138.
 2 Speak Now (Deluxe Package)                        133.
 3 Speak Now                                         133.
 4 Fearless (Taylor's Version)                       131.
 5 Speak Now (Taylor's Version)                      130.
 6 reputation                                        128.
 7 1989 (Deluxe)                                     127.
 8 Taylor Swift (Deluxe Edition)                     126.
 9 THE TORTURED POETS DEPARTMENT: THE ANTHOLOGY      125.
10 Fearless (International Version)                  125.
# ℹ 19 more rows

popularity <- taylor_all |> group_by (album) |> 
  summarize(avg_popularity = mean(popularity, na.rm = T) |> round(2)) |> 
  arrange(avg_popularity |> desc())

popularity

# A tibble: 29 × 2
   album                                        avg_popularity
   <chr>                                                 <dbl>
 1 THE TORTURED POETS DEPARTMENT: THE ANTHOLOGY           78.8
 2 THE TORTURED POETS DEPARTMENT                          77  
 3 Lover                                                  75.9
 4 reputation                                             75.7
 5 Midnights                                              74.2
 6 folklore                                               72.8
 7 1989 (Taylor's Version)                                72.2
 8 Speak Now (Taylor's Version)                           69.4
 9 Red (Taylor's Version)                                 67.2
10 evermore                                               66.4
# ℹ 19 more rows

Which song is the longest? Shortest?

shortest_longest <- taylor_all |> group_by(album) |> 
  summarize(shortest_song = name[which.min(duration_min)],
            longest_song = name[which.max(duration_min)]) 

shortest_longest

# A tibble: 29 × 3
   album                                 shortest_song              longest_song
   <chr>                                 <chr>                      <chr>       
 1 1989                                  All You Had To Do Was Stay Clean       
 2 1989 (Deluxe)                         I Wish You Would - Voice … Clean       
 3 1989 (Taylor's Version)               Now That We Don't Talk (T… Say Don't G…
 4 1989 (Taylor's Version) [Deluxe]      Now That We Don't Talk (T… Say Don't G…
 5 Fearless (International Version)      Teardrops On My Guitar - … Fifteen     
 6 Fearless (Platinum Edition)           Tell Me Why                Untouchable 
 7 Fearless (Taylor's Version)           That’s When (feat. Keith … Untouchable…
 8 Live From Clear Channel Stripped 2008 Picture To Burn - Live Fr… Change - Li…
 9 Lover                                 It’s Nice To Have A Friend Daylight    
10 Midnights                             Vigilante Shit             Snow On The…
# ℹ 19 more rows

taylor_all |> group_by(album) |> 
  slice_min(duration_min) # doing the same thing as above in a different way

# A tibble: 29 × 16
# Groups:   album [29]
   name   album release_date track_number uri   acousticness danceability energy
   <chr>  <chr> <date>              <dbl> <chr>        <dbl>        <dbl>  <dbl>
 1 All Y… 1989  2014-01-01              5 spot…      0.00196        0.602  0.735
 2 I Wis… 1989… 2014-01-01             18 spot…      0.717          0.781  0.357
 3 Now T… 1989… 2023-10-26             19 spot…      0.16           0.8    0.509
 4 Now T… 1989… 2023-10-27             19 spot…      0.16           0.8    0.509
 5 Teard… Fear… 2008-11-11             15 spot…      0.0178         0.514  0.557
 6 Tell … Fear… 2008-11-11             14 spot…      0.0606         0.601  0.852
 7 That’… Fear… 2021-04-09             24 spot…      0.225          0.588  0.608
 8 Pictu… Live… 2008-06-28              6 spot…      0.266          0.647  0.872
 9 It’s … Lover 2019-08-23             17 spot…      0.971          0.737  0.175
10 Vigil… Midn… 2022-10-21              8 spot…      0.166          0.872  0.267
# ℹ 19 more rows
# ℹ 8 more variables: instrumentalness <dbl>, liveness <dbl>, loudness <dbl>,
#   speechiness <dbl>, tempo <dbl>, valence <dbl>, popularity <dbl>,
#   duration_min <dbl>
…
