dRy - 04-report-template-oyo
…
Combine all your files

#copy from analysis
all_outages <- map(
  power_cleaned_list,
  read_csv,
  col_type = cols(fips = col_character())
) |>
  list_rbind() |>
  clean_names()

all_outages

# A tibble: 526,165 × 14
   state_event datetime_event_began datetime_restoration event_type  fips  state
   <chr>       <dttm>               <dttm>               <chr>       <chr> <chr>
 1 Alabama     2015-01-07 17:00:00  2015-01-08 08:35:00  Severe Wea… 1039  Alab…
 2 Alabama     2015-02-16 21:00:00  2015-02-18 14:00:00  Severe Wea… 1003  Alab…
 3 Alabama     2015-02-16 21:00:00  2015-02-18 14:00:00  Severe Wea… 1085  Alab…
 4 Alabama     2015-02-18 15:00:00  2015-02-20 09:00:00  Severe Wea… 1003  Alab…
 5 Alabama     2015-02-18 15:00:00  2015-02-20 09:00:00  Severe Wea… 1003  Alab…
 6 Alabama     2015-02-18 15:00:00  2015-02-20 09:00:00  Severe Wea… 1085  Alab…
 7 Alabama     2015-07-14 20:00:00  2015-07-15 09:23:00  Severe Wea… 1001  Alab…
 8 Alabama     2015-07-14 20:00:00  2015-07-15 09:23:00  Severe Wea… 1021  Alab…
 9 Alabama     2015-07-14 20:00:00  2015-07-15 09:23:00  Severe Wea… 1021  Alab…
10 Alabama     2015-07-14 20:00:00  2015-07-15 09:23:00  Severe Wea… 1039  Alab…
# ℹ 526,155 more rows
# ℹ 8 more variables: county <chr>, start_time <dttm>, duration <dbl>,
#   end_time <dttm>, min_customers <dbl>, max_customers <dbl>,
#   mean_customers <dbl>, event_category <chr>
…
