dRy - 04-report-template-oyo
…
all_outages <- map(
  power_cleaned_list,
  read_csv,
  col_type = cols(fips = col_character())
) |>
  list_rbind() |>
  clean_names()

all_outages

# A tibble: 526,165 × 14
   state_event datetime_event_began datetime_restoration event_type  fips  state
   <chr>       <dttm>               <dttm>               <chr>       <chr> <chr>
 1 Alabama     2015-01-07 17:00:00  2015-01-08 08:35:00  Severe Wea… 1039  Alab…
 2 Alabama     2015-02-16 21:00:00  2015-02-18 14:00:00  Severe Wea… 1003  Alab…
 3 Alabama     2015-02-16 21:00:00  2015-02-18 14:00:00  Severe Wea… 1085  Alab…
 4 Alabama     2015-02-18 15:00:00  2015-02-20 09:00:00  Severe Wea… 1003  Alab…
 5 Alabama     2015-02-18 15:00:00  2015-02-20 09:00:00  Severe Wea… 1003  Alab…
 6 Alabama     2015-02-18 15:00:00  2015-02-20 09:00:00  Severe Wea… 1085  Alab…
 7 Alabama     2015-07-14 20:00:00  2015-07-15 09:23:00  Severe Wea… 1001  Alab…
 8 Alabama     2015-07-14 20:00:00  2015-07-15 09:23:00  Severe Wea… 1021  Alab…
 9 Alabama     2015-07-14 20:00:00  2015-07-15 09:23:00  Severe Wea… 1021  Alab…
10 Alabama     2015-07-14 20:00:00  2015-07-15 09:23:00  Severe Wea… 1039  Alab…
# ℹ 526,155 more rows
# ℹ 8 more variables: county <chr>, start_time <dttm>, duration <dbl>,
#   end_time <dttm>, min_customers <dbl>, max_customers <dbl>,
#   mean_customers <dbl>, event_category <chr>

state_list <- str_split_1(params$state, ",")

States: Texas

outages <- all_outages |>
  filter(state_event %in% state_list)

outages

# A tibble: 196,347 × 14
   state_event datetime_event_began datetime_restoration event_type  fips  state
   <chr>       <dttm>               <dttm>               <chr>       <chr> <chr>
 1 Texas       2014-11-24 00:00:00  2014-11-24 00:00:00  Fuel Suppl… 48015 Texas
 2 Texas       2014-11-24 00:00:00  2014-11-24 00:00:00  Fuel Suppl… 48015 Texas
 3 Texas       2014-11-24 00:00:00  2014-11-24 00:00:00  Fuel Suppl… 48021 Texas
 4 Texas       2014-11-24 00:00:00  2014-11-24 00:00:00  Fuel Suppl… 48021 Texas
 5 Texas       2014-11-24 00:00:00  2014-11-24 00:00:00  Fuel Suppl… 48021 Texas
 6 Texas       2014-11-24 00:00:00  2014-11-24 00:00:00  Fuel Suppl… 48029 Texas
 7 Texas       2014-11-24 00:00:00  2014-11-24 00:00:00  Fuel Suppl… 48029 Texas
 8 Texas       2014-11-24 00:00:00  2014-11-24 00:00:00  Fuel Suppl… 48029 Texas
 9 Texas       2014-11-24 00:00:00  2014-11-24 00:00:00  Fuel Suppl… 48029 Texas
10 Texas       2014-11-24 00:00:00  2014-11-24 00:00:00  Fuel Suppl… 48029 Texas
# ℹ 196,337 more rows
# ℹ 8 more variables: county <chr>, start_time <dttm>, duration <dbl>,
#   end_time <dttm>, min_customers <dbl>, max_customers <dbl>,
#   mean_customers <dbl>, event_category <chr>
…
